Symbol|Name|LastSale|MarketCap|ADR TSO|IPOyear|Sector|Industry|Summary Quote|Unnamed: 9
FCCY|1st Constitution Bancorp (NJ)|12.61|100151167.22|||Finance|Savings Institutions|http://www.nasdaq.com/symbol/fccy|
FLWS|1-800 FLOWERS.COM, Inc.|7.55|494013547.9||1999.0|Consumer Services|Other Specialty Stores|http://www.nasdaq.com/symbol/flws|
PIH|1347 Property Insurance Holdings, Inc.|6.57|40130381.25||2014.0|Finance|Property-Casualty Insurers|http://www.nasdaq.com/symbol/pih|
TFSCR|1347 Capital Corp.|0.25|0.0||2014.0|Finance|Business Services|http://www.nasdaq.com/symbol/tfscr|
TFSCU|1347 Capital Corp.|10.19|42594200.0||2014.0|Finance|Business Services|http://www.nasdaq.com/symbol/tfscu|
TFSC|1347 Capital Corp.|9.89|58825720.0||2014.0|Finance|Business Services|http://www.nasdaq.com/symbol/tfsc|
TFSCW|1347 Capital Corp.|0.14|0.0||2014.0|Finance|Business Services|http://www.nasdaq.com/symbol/tfscw|
FCTY|1st Century Bancshares, Inc|11.15|115256256.6|||Finance|Major Banks|http://www.nasdaq.com/symbol/fcty|
